

boxscore


· Estadisticas 

	By player 
	
	POS
	MIN
	PTS
	REB
	ASI
	ROB
	TAP
	TA
	TI
	%TC
	3PA
	3P1
	%3P
	TLA
	TLI
	%TL
	OFE
	DEF
	PER
	FP
	+/-
	
	By team
	
· Comparativas de equipos

· Jugadas  